PPR Fret Project - ppr-smfret
…
Adding missing grouping variables: `file`
Adding missing grouping variables: `file`

dat

# A tibble: 18,380 × 11
# Groups:   file [8]
   file         sample dye1  dye2   time volume name     value unit     wl dye  
   <chr>        <chr>  <chr> <chr> <dbl>  <dbl> <chr>    <dbl> <chr> <dbl> <chr>
 1 /Users/brad… BSA    Cy3   AF647    60  0.501 Quad…  0.00813 (280…   280 Both 
 2 /Users/brad… BSA    Cy3   AF647    60  0.501 Quad…  0.00621 (260…   260 Both 
 3 /Users/brad… BSA    Cy3   AF647    60  0.501 Quad… -0.00931 (550…   550 Both 
 4 /Users/brad… BSA    Cy3   AF647    60  0.501 Quad…  0.0538  (650…   650 Both 
 5 /Users/brad… BSA    Cy3   AF647    61  0.509 Quad…  0.00844 (280…   280 Both 
 6 /Users/brad… BSA    Cy3   AF647    61  0.509 Quad…  0.00732 (260…   260 Both 
 7 /Users/brad… BSA    Cy3   AF647    61  0.509 Quad… -0.00931 (550…   550 Both 
 8 /Users/brad… BSA    Cy3   AF647    61  0.509 Quad…  0.0253  (650…   650 Both 
 9 /Users/brad… BSA    Cy3   AF647    62  0.517 Quad…  0.00925 (280…   280 Both 
10 /Users/brad… BSA    Cy3   AF647    62  0.517 Quad…  0.00689 (260…   260 Both 
# … with 18,370 more rows
…
